[{"id":1,"product_id":"Mazda","sub_product":"Bread - Frozen Basket Variety","description":"Suspendisse potenti. In eleifend quam a odio. In hac habitasse platea dictumst.\n\nMaecenas ut massa quis augue luctus tincidunt. Nulla mollis molestie lorem. Quisque ut erat.\n\nCurabitur gravida nisi at nibh. In hac habitasse platea dictumst. Aliquam augue quam, sollicitudin vitae, consectetuer eget, rutrum at, lorem.","currencie":"Peso","currencie_id":"COP","rate":3.58},
{"id":2,"product_id":"Chevrolet","sub_product":"Ice Cream Bar - Hagen Daz","description":"Integer ac leo. Pellentesque ultrices mattis odio. Donec vitae nisi.\n\nNam ultrices, libero non mattis pulvinar, nulla pede ullamcorper augue, a suscipit nulla elit ac nulla. Sed vel enim sit amet nunc viverra dapibus. Nulla suscipit ligula in lacus.\n\nCurabitur at ipsum ac tellus semper interdum. Mauris ullamcorper purus sit amet nulla. Quisque arcu libero, rutrum ac, lobortis vel, dapibus at, diam.","currencie":"Sol","currencie_id":"PEN","rate":4.15},
{"id":3,"product_id":"Mitsubishi","sub_product":"Chervil - Fresh","description":"Maecenas ut massa quis augue luctus tincidunt. Nulla mollis molestie lorem. Quisque ut erat.\n\nCurabitur gravida nisi at nibh. In hac habitasse platea dictumst. Aliquam augue quam, sollicitudin vitae, consectetuer eget, rutrum at, lorem.\n\nInteger tincidunt ante vel ipsum. Praesent blandit lacinia erat. Vestibulum sed magna at nunc commodo placerat.","currencie":"Peso","currencie_id":"PHP","rate":1.32},
{"id":4,"product_id":"Geo","sub_product":"Artichokes - Jerusalem","description":"Pellentesque at nulla. Suspendisse potenti. Cras in purus eu magna vulputate luctus.\n\nCum sociis natoque penatibus et magnis dis parturient montes, nascetur ridiculus mus. Vivamus vestibulum sagittis sapien. Cum sociis natoque penatibus et magnis dis parturient montes, nascetur ridiculus mus.\n\nEtiam vel augue. Vestibulum rutrum rutrum neque. Aenean auctor gravida sem.","currencie":"Afghani","currencie_id":"AFN","rate":4.96},
{"id":5,"product_id":"Lexus","sub_product":"Molasses - Fancy","description":"Curabitur gravida nisi at nibh. In hac habitasse platea dictumst. Aliquam augue quam, sollicitudin vitae, consectetuer eget, rutrum at, lorem.\n\nInteger tincidunt ante vel ipsum. Praesent blandit lacinia erat. Vestibulum sed magna at nunc commodo placerat.\n\nPraesent blandit. Nam nulla. Integer pede justo, lacinia eget, tincidunt eget, tempus vel, pede.","currencie":"Rupiah","currencie_id":"IDR","rate":3.86},
{"id":6,"product_id":"Aston Martin","sub_product":"Bag Stand","description":"Duis aliquam convallis nunc. Proin at turpis a pede posuere nonummy. Integer non velit.\n\nDonec diam neque, vestibulum eget, vulputate ut, ultrices vel, augue. Vestibulum ante ipsum primis in faucibus orci luctus et ultrices posuere cubilia Curae; Donec pharetra, magna vestibulum aliquet ultrices, erat tortor sollicitudin mi, sit amet lobortis sapien sapien non mi. Integer ac neque.\n\nDuis bibendum. Morbi non quam nec dui luctus rutrum. Nulla tellus.","currencie":"Dirham","currencie_id":"MAD","rate":1.99},
{"id":7,"product_id":"Cadillac","sub_product":"Grapefruit - Pink","description":"Vestibulum ac est lacinia nisi venenatis tristique. Fusce congue, diam id ornare imperdiet, sapien urna pretium nisl, ut volutpat sapien arcu sed augue. Aliquam erat volutpat.\n\nIn congue. Etiam justo. Etiam pretium iaculis justo.","currencie":"Euro","currencie_id":"EUR","rate":1.36},
{"id":8,"product_id":"Pontiac","sub_product":"Cakes Assorted","description":"Cum sociis natoque penatibus et magnis dis parturient montes, nascetur ridiculus mus. Vivamus vestibulum sagittis sapien. Cum sociis natoque penatibus et magnis dis parturient montes, nascetur ridiculus mus.\n\nEtiam vel augue. Vestibulum rutrum rutrum neque. Aenean auctor gravida sem.\n\nPraesent id massa id nisl venenatis lacinia. Aenean sit amet justo. Morbi ut odio.","currencie":"Dollar","currencie_id":"CAD","rate":2.15},
{"id":9,"product_id":"Dodge","sub_product":"Pepper - Paprika, Hungarian","description":"In quis justo. Maecenas rhoncus aliquam lacus. Morbi quis tortor id nulla ultrices aliquet.","currencie":"Ruble","currencie_id":"RUB","rate":1.45},
{"id":10,"product_id":"Chrysler","sub_product":"Bread - Italian Roll With Herbs","description":"In congue. Etiam justo. Etiam pretium iaculis justo.","currencie":"Tugrik","currencie_id":"MNT","rate":1.79},
{"id":11,"product_id":"Subaru","sub_product":"Halibut - Steaks","description":"Aenean fermentum. Donec ut mauris eget massa tempor convallis. Nulla neque libero, convallis eget, eleifend luctus, ultricies eu, nibh.\n\nQuisque id justo sit amet sapien dignissim vestibulum. Vestibulum ante ipsum primis in faucibus orci luctus et ultrices posuere cubilia Curae; Nulla dapibus dolor vel est. Donec odio justo, sollicitudin ut, suscipit a, feugiat et, eros.","currencie":"Dollar","currencie_id":"USD","rate":3.19},
{"id":12,"product_id":"Mazda","sub_product":"Coffee - French Vanilla Frothy","description":"Curabitur gravida nisi at nibh. In hac habitasse platea dictumst. Aliquam augue quam, sollicitudin vitae, consectetuer eget, rutrum at, lorem.","currencie":"Rupiah","currencie_id":"IDR","rate":1.15},
{"id":13,"product_id":"Subaru","sub_product":"Mushroom - Enoki, Dry","description":"Sed sagittis. Nam congue, risus semper porta volutpat, quam pede lobortis ligula, sit amet eleifend pede libero quis orci. Nullam molestie nibh in lectus.","currencie":"Yuan Renminbi","currencie_id":"CNY","rate":3.39},
{"id":14,"product_id":"Mitsubishi","sub_product":"Savory","description":"Curabitur at ipsum ac tellus semper interdum. Mauris ullamcorper purus sit amet nulla. Quisque arcu libero, rutrum ac, lobortis vel, dapibus at, diam.","currencie":"Yuan Renminbi","currencie_id":"CNY","rate":3.64},
{"id":15,"product_id":"Mazda","sub_product":"Poppy Seed","description":"In hac habitasse platea dictumst. Morbi vestibulum, velit id pretium iaculis, diam erat fermentum justo, nec condimentum neque sapien placerat ante. Nulla justo.\n\nAliquam quis turpis eget elit sodales scelerisque. Mauris sit amet eros. Suspendisse accumsan tortor quis turpis.","currencie":"Dollar","currencie_id":"XCD","rate":2.13}]