[{"id":1,"account_number":"5921955361","date":"Ghiotto","operation_type":"bghiotto0@rediff.com","amount":"Male","stock_sector":"n/a"},
{"id":2,"account_number":"6136771314","date":"Marham","operation_type":"vmarham1@imageshack.us","amount":"Female","stock_sector":"Technology"},
{"id":3,"account_number":"7380682814","date":"Plastow","operation_type":"xplastow2@t.co","amount":"Female","stock_sector":"Health Care"},
{"id":4,"account_number":"6099310800","date":"Groger","operation_type":"fgroger3@mashable.com","amount":"Female","stock_sector":"n/a"},
{"id":5,"account_number":"1164031244","date":"Prime","operation_type":"cprime4@free.fr","amount":"Male","stock_sector":"Technology"},
{"id":6,"account_number":"0980951887","date":"Goldhill","operation_type":"rgoldhill5@ifeng.com","amount":"Male","stock_sector":"n/a"},
{"id":7,"account_number":"8312778535","date":"Raddin","operation_type":"mraddin6@amazon.co.uk","amount":"Female","stock_sector":"Consumer Services"},
{"id":8,"account_number":"3457358826","date":"Larkins","operation_type":"rlarkins7@printfriendly.com","amount":"Male","stock_sector":"Health Care"},
{"id":9,"account_number":"8057363797","date":"Schlagh","operation_type":"kschlagh8@bing.com","amount":"Male","stock_sector":"Consumer Non-Durables"},
{"id":10,"account_number":"8045018321","date":"Lonsbrough","operation_type":"hlonsbrough9@blog.com","amount":"Female","stock_sector":"Consumer Non-Durables"},
{"id":11,"account_number":"9009230880","date":"Doumenc","operation_type":"wdoumenca@ibm.com","amount":"Male","stock_sector":"Energy"},
{"id":12,"account_number":"1834860466","date":"Blondell","operation_type":"eblondellb@i2i.jp","amount":"Female","stock_sector":"Consumer Services"},
{"id":13,"account_number":"6922153634","date":"Claeskens","operation_type":"cclaeskensc@infoseek.co.jp","amount":"Female","stock_sector":"Public Utilities"},
{"id":14,"account_number":"3684463825","date":"Monni","operation_type":"tmonnid@cnet.com","amount":"Male","stock_sector":"Energy"},
{"id":15,"account_number":"3443928137","date":"Smeal","operation_type":"lsmeale@reddit.com","amount":"Female","stock_sector":"Consumer Durables"},
{"id":16,"account_number":"7304607564","date":"Rushworth","operation_type":"mrushworthf@va.gov","amount":"Female","stock_sector":"Health Care"},
{"id":17,"account_number":"9576045711","date":"Furphy","operation_type":"jfurphyg@fda.gov","amount":"Male","stock_sector":"Public Utilities"},
{"id":18,"account_number":"3580963759","date":"Dimmick","operation_type":"edimmickh@pagesperso-orange.fr","amount":"Female","stock_sector":"Public Utilities"},
{"id":19,"account_number":"7546237904","date":"Robelin","operation_type":"drobelini@cargocollective.com","amount":"Male","stock_sector":"Finance"},
{"id":20,"account_number":"6406341430","date":"Coopper","operation_type":"zcoopperj@merriam-webster.com","amount":"Female","stock_sector":"Capital Goods"},
{"id":21,"account_number":"7967326512","date":"Oby","operation_type":"dobyk@google.it","amount":"Female","stock_sector":"Finance"},
{"id":22,"account_number":"0458748005","date":"Wimbush","operation_type":"dwimbushl@google.es","amount":"Female","stock_sector":"Finance"},
{"id":23,"account_number":"2962585205","date":"Kertess","operation_type":"vkertessm@google.com.au","amount":"Male","stock_sector":"Finance"},
{"id":24,"account_number":"4190185612","date":"Henriquet","operation_type":"khenriquetn@redcross.org","amount":"Male","stock_sector":"Health Care"},
{"id":25,"account_number":"8075936280","date":"Olenikov","operation_type":"jolenikovo@zimbio.com","amount":"Female","stock_sector":"n/a"},
{"id":26,"account_number":"3184712176","date":"Mingardo","operation_type":"mmingardop@spotify.com","amount":"Male","stock_sector":"Finance"},
{"id":27,"account_number":"7076697378","date":"Muggleton","operation_type":"rmuggletonq@theguardian.com","amount":"Male","stock_sector":"n/a"},
{"id":28,"account_number":"2638993573","date":"Simeoni","operation_type":"rsimeonir@goodreads.com","amount":"Male","stock_sector":"Finance"},
{"id":29,"account_number":"8446324342","date":"Uzzell","operation_type":"duzzells@icq.com","amount":"Female","stock_sector":"Consumer Services"},
{"id":30,"account_number":"6273693145","date":"McKitterick","operation_type":"cmckitterickt@tamu.edu","amount":"Male","stock_sector":"Finance"},
{"id":31,"account_number":"3995083242","date":"Ben","operation_type":"lbenu@noaa.gov","amount":"Female","stock_sector":"Energy"},
{"id":32,"account_number":"2256255174","date":"Gosneye","operation_type":"sgosneyev@msu.edu","amount":"Male","stock_sector":"n/a"},
{"id":33,"account_number":"5629325493","date":"Cary","operation_type":"ccaryw@infoseek.co.jp","amount":"Female","stock_sector":"Technology"},
{"id":34,"account_number":"0970060815","date":"Perrins","operation_type":"fperrinsx@mysql.com","amount":"Female","stock_sector":"Finance"},
{"id":35,"account_number":"7976553887","date":"Tincombe","operation_type":"btincombey@mediafire.com","amount":"Female","stock_sector":"n/a"},
{"id":36,"account_number":"2572822628","date":"Fone","operation_type":"kfonez@patch.com","amount":"Female","stock_sector":"Finance"},
{"id":37,"account_number":"4850510108","date":"Gormally","operation_type":"bgormally10@wiley.com","amount":"Male","stock_sector":"Capital Goods"},
{"id":38,"account_number":"2212496028","date":"Boom","operation_type":"zboom11@xing.com","amount":"Female","stock_sector":"Finance"},
{"id":39,"account_number":"2914629885","date":"Kidwell","operation_type":"lkidwell12@qq.com","amount":"Female","stock_sector":"Capital Goods"},
{"id":40,"account_number":"0256690537","date":"Filippucci","operation_type":"bfilippucci13@cam.ac.uk","amount":"Male","stock_sector":"Public Utilities"},
{"id":41,"account_number":"0700487077","date":"Fonso","operation_type":"dfonso14@ebay.com","amount":"Male","stock_sector":"Technology"},
{"id":42,"account_number":"1691882046","date":"Jeans","operation_type":"ljeans15@meetup.com","amount":"Female","stock_sector":"n/a"},
{"id":43,"account_number":"7703569933","date":"Narraway","operation_type":"cnarraway16@mysql.com","amount":"Male","stock_sector":"Finance"},
{"id":44,"account_number":"0639237894","date":"Fasse","operation_type":"rfasse17@forbes.com","amount":"Male","stock_sector":"Technology"},
{"id":45,"account_number":"3892438714","date":"Duckerin","operation_type":"dduckerin18@amazonaws.com","amount":"Female","stock_sector":"Consumer Services"},
{"id":46,"account_number":"7484430188","date":"Brister","operation_type":"sbrister19@mail.ru","amount":"Male","stock_sector":"Capital Goods"},
{"id":47,"account_number":"3647210420","date":"Sirey","operation_type":"rsirey1a@comsenz.com","amount":"Female","stock_sector":"Technology"},
{"id":48,"account_number":"2786854482","date":"Sollon","operation_type":"lsollon1b@geocities.com","amount":"Female","stock_sector":"n/a"},
{"id":49,"account_number":"8350387572","date":"Spinello","operation_type":"mspinello1c@flickr.com","amount":"Male","stock_sector":"Public Utilities"},
{"id":50,"account_number":"0381500624","date":"Capron","operation_type":"acapron1d@usnews.com","amount":"Male","stock_sector":"Capital Goods"},
{"id":51,"account_number":"0507024265","date":"John","operation_type":"mjohn1e@imgur.com","amount":"Male","stock_sector":"Consumer Services"},
{"id":52,"account_number":"1022145037","date":"Pitcher","operation_type":"spitcher1f@com.com","amount":"Female","stock_sector":"n/a"},
{"id":53,"account_number":"7610345709","date":"Kordes","operation_type":"skordes1g@ehow.com","amount":"Female","stock_sector":"n/a"},
{"id":54,"account_number":"4186250553","date":"Kennerknecht","operation_type":"rkennerknecht1h@lulu.com","amount":"Female","stock_sector":"Finance"},
{"id":55,"account_number":"2209493730","date":"Hammerberger","operation_type":"rhammerberger1i@1und1.de","amount":"Female","stock_sector":"Technology"},
{"id":56,"account_number":"9739330177","date":"Letham","operation_type":"pletham1j@mapy.cz","amount":"Female","stock_sector":"Health Care"},
{"id":57,"account_number":"9095988953","date":"Hanton","operation_type":"ahanton1k@hibu.com","amount":"Male","stock_sector":"Consumer Services"},
{"id":58,"account_number":"5485843158","date":"Cereceres","operation_type":"fcereceres1l@fda.gov","amount":"Female","stock_sector":"Consumer Services"},
{"id":59,"account_number":"8713892444","date":"Ginger","operation_type":"bginger1m@google.nl","amount":"Female","stock_sector":"Consumer Services"},
{"id":60,"account_number":"9388388747","date":"Charer","operation_type":"lcharer1n@si.edu","amount":"Male","stock_sector":"n/a"},
{"id":61,"account_number":"0172833930","date":"Theakston","operation_type":"gtheakston1o@washingtonpost.com","amount":"Female","stock_sector":"Consumer Services"},
{"id":62,"account_number":"8075268776","date":"Darrigrand","operation_type":"wdarrigrand1p@about.com","amount":"Male","stock_sector":"n/a"},
{"id":63,"account_number":"3354974605","date":"Desaur","operation_type":"bdesaur1q@vimeo.com","amount":"Female","stock_sector":"Health Care"},
{"id":64,"account_number":"9073232619","date":"Earngy","operation_type":"eearngy1r@mayoclinic.com","amount":"Male","stock_sector":"Health Care"},
{"id":65,"account_number":"4407093315","date":"Chippindall","operation_type":"gchippindall1s@nyu.edu","amount":"Female","stock_sector":"Health Care"},
{"id":66,"account_number":"9207036665","date":"Andell","operation_type":"nandell1t@who.int","amount":"Male","stock_sector":"Public Utilities"},
{"id":67,"account_number":"6724102596","date":"Bamling","operation_type":"cbamling1u@icio.us","amount":"Female","stock_sector":"Finance"},
{"id":68,"account_number":"6054601792","date":"Willoughby","operation_type":"vwilloughby1v@chronoengine.com","amount":"Male","stock_sector":"Technology"},
{"id":69,"account_number":"1281303437","date":"Niese","operation_type":"mniese1w@earthlink.net","amount":"Female","stock_sector":"Consumer Services"},
{"id":70,"account_number":"1350657913","date":"Wiz","operation_type":"hwiz1x@theguardian.com","amount":"Male","stock_sector":"Finance"},
{"id":71,"account_number":"0598160493","date":"Webber","operation_type":"hwebber1y@feedburner.com","amount":"Female","stock_sector":"Consumer Services"},
{"id":72,"account_number":"4013372134","date":"Dowker","operation_type":"pdowker1z@opensource.org","amount":"Female","stock_sector":"Technology"},
{"id":73,"account_number":"6470589340","date":"Flewin","operation_type":"mflewin20@yahoo.com","amount":"Female","stock_sector":"n/a"},
{"id":74,"account_number":"8310777647","date":"Batts","operation_type":"abatts21@nature.com","amount":"Female","stock_sector":"Health Care"},
{"id":75,"account_number":"2935511212","date":"Ruddlesden","operation_type":"druddlesden22@mac.com","amount":"Male","stock_sector":"n/a"},
{"id":76,"account_number":"2161831194","date":"Fortye","operation_type":"nfortye23@indiatimes.com","amount":"Male","stock_sector":"Capital Goods"},
{"id":77,"account_number":"9082596563","date":"Eakle","operation_type":"teakle24@imdb.com","amount":"Female","stock_sector":"n/a"},
{"id":78,"account_number":"4344442644","date":"Brearty","operation_type":"mbrearty25@vinaora.com","amount":"Female","stock_sector":"Consumer Services"},
{"id":79,"account_number":"0414714806","date":"Molson","operation_type":"bmolson26@nih.gov","amount":"Male","stock_sector":"Technology"},
{"id":80,"account_number":"6723217357","date":"Channer","operation_type":"lchanner27@dropbox.com","amount":"Male","stock_sector":"Finance"},
{"id":81,"account_number":"0235138975","date":"Moreton","operation_type":"mmoreton28@netlog.com","amount":"Female","stock_sector":"Finance"},
{"id":82,"account_number":"6673850973","date":"Feake","operation_type":"bfeake29@discovery.com","amount":"Female","stock_sector":"Technology"},
{"id":83,"account_number":"7689190251","date":"Levis","operation_type":"tlevis2a@nps.gov","amount":"Female","stock_sector":"Health Care"},
{"id":84,"account_number":"9229765937","date":"Fakeley","operation_type":"wfakeley2b@qq.com","amount":"Male","stock_sector":"Health Care"},
{"id":85,"account_number":"6210833489","date":"Hirsthouse","operation_type":"mhirsthouse2c@smugmug.com","amount":"Female","stock_sector":"Health Care"},
{"id":86,"account_number":"6409421990","date":"McKennan","operation_type":"cmckennan2d@pen.io","amount":"Male","stock_sector":"Basic Industries"},
{"id":87,"account_number":"3132136166","date":"Arend","operation_type":"darend2e@bigcartel.com","amount":"Female","stock_sector":"Consumer Services"},
{"id":88,"account_number":"7191166312","date":"Ferrotti","operation_type":"iferrotti2f@businessinsider.com","amount":"Female","stock_sector":"n/a"},
{"id":89,"account_number":"5934236423","date":"Baughen","operation_type":"ebaughen2g@usda.gov","amount":"Female","stock_sector":"Health Care"},
{"id":90,"account_number":"5155091993","date":"Pacey","operation_type":"fpacey2h@w3.org","amount":"Female","stock_sector":"Consumer Non-Durables"},
{"id":91,"account_number":"0042320402","date":"McIlmorow","operation_type":"dmcilmorow2i@marriott.com","amount":"Male","stock_sector":"n/a"},
{"id":92,"account_number":"1727394712","date":"Frisel","operation_type":"afrisel2j@feedburner.com","amount":"Female","stock_sector":"Consumer Non-Durables"},
{"id":93,"account_number":"7622848964","date":"Ouver","operation_type":"mouver2k@discovery.com","amount":"Male","stock_sector":"Energy"},
{"id":94,"account_number":"9645701708","date":"Delf","operation_type":"hdelf2l@tmall.com","amount":"Male","stock_sector":"n/a"},
{"id":95,"account_number":"7443802188","date":"Lodwig","operation_type":"blodwig2m@so-net.ne.jp","amount":"Female","stock_sector":"Finance"},
{"id":96,"account_number":"1037634977","date":"Feavearyear","operation_type":"lfeavearyear2n@tinypic.com","amount":"Male","stock_sector":"Consumer Services"},
{"id":97,"account_number":"4454826323","date":"MacCrossan","operation_type":"jmaccrossan2o@godaddy.com","amount":"Female","stock_sector":"Consumer Services"},
{"id":98,"account_number":"4641497451","date":"Huortic","operation_type":"khuortic2p@google.es","amount":"Male","stock_sector":"n/a"},
{"id":99,"account_number":"2999333307","date":"Giacomuzzo","operation_type":"egiacomuzzo2q@parallels.com","amount":"Female","stock_sector":"n/a"},
{"id":100,"account_number":"5786490580","date":"Dyter","operation_type":"jdyter2r@wordpress.org","amount":"Male","stock_sector":"Public Utilities"},
{"id":101,"account_number":"0737883790","date":"Cammidge","operation_type":"gcammidge2s@ucla.edu","amount":"Female","stock_sector":"Public Utilities"},
{"id":102,"account_number":"6607593496","date":"Landers","operation_type":"rlanders2t@infoseek.co.jp","amount":"Male","stock_sector":"Consumer Non-Durables"},
{"id":103,"account_number":"5701890872","date":"Sarsfield","operation_type":"hsarsfield2u@princeton.edu","amount":"Male","stock_sector":"Technology"},
{"id":104,"account_number":"1697997945","date":"Pasterfield","operation_type":"mpasterfield2v@noaa.gov","amount":"Female","stock_sector":"Capital Goods"},
{"id":105,"account_number":"8208971529","date":"Antonsson","operation_type":"iantonsson2w@cbslocal.com","amount":"Female","stock_sector":"n/a"},
{"id":106,"account_number":"5718952345","date":"Harcase","operation_type":"dharcase2x@pinterest.com","amount":"Female","stock_sector":"Energy"},
{"id":107,"account_number":"1158826036","date":"Millmoe","operation_type":"emillmoe2y@yolasite.com","amount":"Male","stock_sector":"n/a"},
{"id":108,"account_number":"2035401399","date":"Salerg","operation_type":"lsalerg2z@sakura.ne.jp","amount":"Male","stock_sector":"Basic Industries"},
{"id":109,"account_number":"5202394179","date":"Nelm","operation_type":"hnelm30@google.es","amount":"Male","stock_sector":"Capital Goods"},
{"id":110,"account_number":"4173988583","date":"Klezmski","operation_type":"eklezmski31@samsung.com","amount":"Female","stock_sector":"Technology"},
{"id":111,"account_number":"2758790009","date":"Deetlof","operation_type":"mdeetlof32@weibo.com","amount":"Male","stock_sector":"Basic Industries"},
{"id":112,"account_number":"5840657891","date":"Bestwick","operation_type":"cbestwick33@wikimedia.org","amount":"Female","stock_sector":"Finance"},
{"id":113,"account_number":"3249058602","date":"Gell","operation_type":"pgell34@unesco.org","amount":"Male","stock_sector":"Finance"},
{"id":114,"account_number":"5470383806","date":"Jollie","operation_type":"sjollie35@amazon.co.uk","amount":"Female","stock_sector":"Health Care"},
{"id":115,"account_number":"4806486086","date":"Bru","operation_type":"pbru36@census.gov","amount":"Female","stock_sector":"n/a"},
{"id":116,"account_number":"9453001724","date":"Chapier","operation_type":"bchapier37@foxnews.com","amount":"Female","stock_sector":"Transportation"},
{"id":117,"account_number":"1061328287","date":"Sawer","operation_type":"msawer38@reference.com","amount":"Male","stock_sector":"Consumer Services"},
{"id":118,"account_number":"6669063024","date":"Borrie","operation_type":"lborrie39@foxnews.com","amount":"Female","stock_sector":"Transportation"},
{"id":119,"account_number":"7846784919","date":"Collier","operation_type":"bcollier3a@webnode.com","amount":"Female","stock_sector":"n/a"},
{"id":120,"account_number":"5075273173","date":"Gresly","operation_type":"ngresly3b@hibu.com","amount":"Male","stock_sector":"Consumer Services"},
{"id":121,"account_number":"0440969506","date":"Smee","operation_type":"csmee3c@hud.gov","amount":"Female","stock_sector":"n/a"},
{"id":122,"account_number":"9433041208","date":"Bukowski","operation_type":"jbukowski3d@berkeley.edu","amount":"Female","stock_sector":"Finance"},
{"id":123,"account_number":"8917871488","date":"Hugo","operation_type":"ohugo3e@businessinsider.com","amount":"Female","stock_sector":"n/a"},
{"id":124,"account_number":"2828314448","date":"Pedri","operation_type":"bpedri3f@csmonitor.com","amount":"Female","stock_sector":"Consumer Services"},
{"id":125,"account_number":"8457709569","date":"Chorley","operation_type":"hchorley3g@slashdot.org","amount":"Male","stock_sector":"Health Care"},
{"id":126,"account_number":"8029476035","date":"Cranstone","operation_type":"ncranstone3h@4shared.com","amount":"Male","stock_sector":"Finance"},
{"id":127,"account_number":"5453854782","date":"Stave","operation_type":"astave3i@stumbleupon.com","amount":"Female","stock_sector":"Technology"},
{"id":128,"account_number":"7085268506","date":"Rape","operation_type":"drape3j@w3.org","amount":"Male","stock_sector":"n/a"},
{"id":129,"account_number":"0975231065","date":"Crosseland","operation_type":"tcrosseland3k@comcast.net","amount":"Male","stock_sector":"Finance"},
{"id":130,"account_number":"8188783633","date":"Baudrey","operation_type":"fbaudrey3l@google.com","amount":"Male","stock_sector":"Finance"},
{"id":131,"account_number":"7596974651","date":"Janczewski","operation_type":"tjanczewski3m@samsung.com","amount":"Female","stock_sector":"Finance"},
{"id":132,"account_number":"8225347110","date":"Dodsworth","operation_type":"jdodsworth3n@meetup.com","amount":"Male","stock_sector":"n/a"},
{"id":133,"account_number":"4005536670","date":"Kasbye","operation_type":"gkasbye3o@digg.com","amount":"Female","stock_sector":"Capital Goods"},
{"id":134,"account_number":"6329463298","date":"Rooson","operation_type":"grooson3p@irs.gov","amount":"Male","stock_sector":"n/a"},
{"id":135,"account_number":"1887431225","date":"Roostan","operation_type":"proostan3q@jimdo.com","amount":"Male","stock_sector":"Basic Industries"},
{"id":136,"account_number":"5246277844","date":"Zuanelli","operation_type":"azuanelli3r@chronoengine.com","amount":"Male","stock_sector":"Consumer Non-Durables"},
{"id":137,"account_number":"5183527040","date":"Geyton","operation_type":"egeyton3s@kickstarter.com","amount":"Female","stock_sector":"Basic Industries"},
{"id":138,"account_number":"2337118282","date":"Zammitt","operation_type":"kzammitt3t@dailymotion.com","amount":"Male","stock_sector":"Public Utilities"},
{"id":139,"account_number":"9315169107","date":"Viles","operation_type":"rviles3u@tiny.cc","amount":"Female","stock_sector":"Health Care"},
{"id":140,"account_number":"4346699219","date":"O' Cloney","operation_type":"nocloney3v@51.la","amount":"Male","stock_sector":"n/a"},
{"id":141,"account_number":"6797286859","date":"Toulson","operation_type":"mtoulson3w@cornell.edu","amount":"Female","stock_sector":"Energy"},
{"id":142,"account_number":"9019760408","date":"Aggott","operation_type":"iaggott3x@cnn.com","amount":"Male","stock_sector":"n/a"},
{"id":143,"account_number":"6479019040","date":"Cubbin","operation_type":"rcubbin3y@dedecms.com","amount":"Female","stock_sector":"Health Care"},
{"id":144,"account_number":"0672558181","date":"Phettis","operation_type":"dphettis3z@google.cn","amount":"Male","stock_sector":"Capital Goods"},
{"id":145,"account_number":"0779917774","date":"Bigadike","operation_type":"lbigadike40@behance.net","amount":"Male","stock_sector":"Consumer Services"},
{"id":146,"account_number":"3214973134","date":"Shepherd","operation_type":"pshepherd41@nsw.gov.au","amount":"Male","stock_sector":"Technology"},
{"id":147,"account_number":"9803836374","date":"McKerron","operation_type":"tmckerron42@nbcnews.com","amount":"Female","stock_sector":"Miscellaneous"},
{"id":148,"account_number":"8402272959","date":"Heckle","operation_type":"nheckle43@acquirethisname.com","amount":"Male","stock_sector":"Consumer Services"},
{"id":149,"account_number":"7585608462","date":"Lomax","operation_type":"blomax44@engadget.com","amount":"Male","stock_sector":"n/a"},
{"id":150,"account_number":"7914492345","date":"Reichert","operation_type":"rreichert45@admin.ch","amount":"Male","stock_sector":"Health Care"},
{"id":151,"account_number":"9466734601","date":"Phuprate","operation_type":"jphuprate46@odnoklassniki.ru","amount":"Male","stock_sector":"n/a"},
{"id":152,"account_number":"8046504416","date":"Moggle","operation_type":"lmoggle47@addtoany.com","amount":"Female","stock_sector":"Technology"},
{"id":153,"account_number":"9345121404","date":"Panner","operation_type":"fpanner48@rediff.com","amount":"Female","stock_sector":"Energy"},
{"id":154,"account_number":"9225572425","date":"Dasent","operation_type":"ndasent49@tripod.com","amount":"Female","stock_sector":"Finance"},
{"id":155,"account_number":"3519639874","date":"De la Feld","operation_type":"adelafeld4a@indiatimes.com","amount":"Female","stock_sector":"n/a"},
{"id":156,"account_number":"4313910409","date":"Maleby","operation_type":"gmaleby4b@hhs.gov","amount":"Male","stock_sector":"Capital Goods"},
{"id":157,"account_number":"7076452286","date":"Stigers","operation_type":"mstigers4c@e-recht24.de","amount":"Male","stock_sector":"Consumer Services"},
{"id":158,"account_number":"5823511930","date":"Thorold","operation_type":"gthorold4d@go.com","amount":"Female","stock_sector":"Consumer Services"},
{"id":159,"account_number":"8141298348","date":"Howie","operation_type":"lhowie4e@shutterfly.com","amount":"Male","stock_sector":"Consumer Services"},
{"id":160,"account_number":"0770235638","date":"Phare","operation_type":"aphare4f@alibaba.com","amount":"Female","stock_sector":"Public Utilities"},
{"id":161,"account_number":"4565531011","date":"Colmer","operation_type":"dcolmer4g@twitter.com","amount":"Male","stock_sector":"Public Utilities"},
{"id":162,"account_number":"4012804928","date":"Walczynski","operation_type":"iwalczynski4h@netlog.com","amount":"Female","stock_sector":"Finance"},
{"id":163,"account_number":"4611351580","date":"Greveson","operation_type":"dgreveson4i@pbs.org","amount":"Male","stock_sector":"Basic Industries"},
{"id":164,"account_number":"6487866962","date":"Girardez","operation_type":"dgirardez4j@ucla.edu","amount":"Female","stock_sector":"Finance"},
{"id":165,"account_number":"1788356659","date":"Leicester","operation_type":"fleicester4k@answers.com","amount":"Male","stock_sector":"Finance"},
{"id":166,"account_number":"3283027064","date":"Aven","operation_type":"saven4l@goodreads.com","amount":"Female","stock_sector":"Health Care"},
{"id":167,"account_number":"5494621308","date":"Pickton","operation_type":"rpickton4m@economist.com","amount":"Female","stock_sector":"Technology"},
{"id":168,"account_number":"4234487112","date":"Exposito","operation_type":"uexposito4n@google.nl","amount":"Female","stock_sector":"Basic Industries"},
{"id":169,"account_number":"1924819821","date":"Reubens","operation_type":"mreubens4o@wikispaces.com","amount":"Female","stock_sector":"n/a"},
{"id":170,"account_number":"5171634572","date":"Klaas","operation_type":"aklaas4p@yahoo.co.jp","amount":"Female","stock_sector":"Finance"},
{"id":171,"account_number":"4638556558","date":"Philipsson","operation_type":"jphilipsson4q@cbc.ca","amount":"Male","stock_sector":"Finance"},
{"id":172,"account_number":"6782997479","date":"Matveyev","operation_type":"lmatveyev4r@paginegialle.it","amount":"Female","stock_sector":"Basic Industries"},
{"id":173,"account_number":"8383724209","date":"Billson","operation_type":"kbillson4s@example.com","amount":"Female","stock_sector":"Finance"},
{"id":174,"account_number":"2002439788","date":"Rule","operation_type":"brule4t@weebly.com","amount":"Male","stock_sector":"Energy"},
{"id":175,"account_number":"9119353014","date":"Tredgold","operation_type":"btredgold4u@epa.gov","amount":"Male","stock_sector":"n/a"},
{"id":176,"account_number":"2365171354","date":"Gilliatt","operation_type":"rgilliatt4v@taobao.com","amount":"Female","stock_sector":"Basic Industries"},
{"id":177,"account_number":"5573956817","date":"Saby","operation_type":"msaby4w@sakura.ne.jp","amount":"Male","stock_sector":"Health Care"},
{"id":178,"account_number":"8520100848","date":"Fullman","operation_type":"bfullman4x@reddit.com","amount":"Male","stock_sector":"Technology"},
{"id":179,"account_number":"4784097910","date":"Keppy","operation_type":"hkeppy4y@jigsy.com","amount":"Female","stock_sector":"Finance"},
{"id":180,"account_number":"6419372658","date":"Ciobutaro","operation_type":"dciobutaro4z@netvibes.com","amount":"Male","stock_sector":"Capital Goods"},
{"id":181,"account_number":"1845887549","date":"Beernaert","operation_type":"fbeernaert50@engadget.com","amount":"Female","stock_sector":"Transportation"},
{"id":182,"account_number":"8950846381","date":"Minucci","operation_type":"rminucci51@imdb.com","amount":"Male","stock_sector":"n/a"},
{"id":183,"account_number":"8576037815","date":"Hourahan","operation_type":"lhourahan52@japanpost.jp","amount":"Female","stock_sector":"Capital Goods"},
{"id":184,"account_number":"6507734446","date":"Hugli","operation_type":"shugli53@is.gd","amount":"Male","stock_sector":"n/a"},
{"id":185,"account_number":"0919107362","date":"Dowey","operation_type":"ldowey54@altervista.org","amount":"Male","stock_sector":"Capital Goods"},
{"id":186,"account_number":"3296511989","date":"Coultas","operation_type":"acoultas55@ehow.com","amount":"Male","stock_sector":"Consumer Services"},
{"id":187,"account_number":"3008845045","date":"Soall","operation_type":"dsoall56@sourceforge.net","amount":"Male","stock_sector":"Consumer Services"},
{"id":188,"account_number":"4412453219","date":"Profit","operation_type":"hprofit57@histats.com","amount":"Male","stock_sector":"Public Utilities"},
{"id":189,"account_number":"1961609673","date":"Grinnov","operation_type":"cgrinnov58@jugem.jp","amount":"Male","stock_sector":"Consumer Non-Durables"},
{"id":190,"account_number":"1492476781","date":"Petchell","operation_type":"apetchell59@imdb.com","amount":"Male","stock_sector":"n/a"},
{"id":191,"account_number":"8809459067","date":"Jiracek","operation_type":"ajiracek5a@reddit.com","amount":"Female","stock_sector":"Technology"},
{"id":192,"account_number":"9639187658","date":"Hildred","operation_type":"mhildred5b@foxnews.com","amount":"Male","stock_sector":"n/a"},
{"id":193,"account_number":"7199562896","date":"Perri","operation_type":"nperri5c@examiner.com","amount":"Male","stock_sector":"n/a"},
{"id":194,"account_number":"6990837349","date":"Fanning","operation_type":"afanning5d@goodreads.com","amount":"Female","stock_sector":"Health Care"},
{"id":195,"account_number":"9302486036","date":"Gehrels","operation_type":"rgehrels5e@blog.com","amount":"Male","stock_sector":"Miscellaneous"},
{"id":196,"account_number":"9813201487","date":"Faircloth","operation_type":"hfaircloth5f@weibo.com","amount":"Male","stock_sector":"Technology"},
{"id":197,"account_number":"4707402917","date":"Duggen","operation_type":"aduggen5g@hc360.com","amount":"Female","stock_sector":"Basic Industries"},
{"id":198,"account_number":"5665082309","date":"Doherty","operation_type":"pdoherty5h@abc.net.au","amount":"Female","stock_sector":"Finance"},
{"id":199,"account_number":"8909910941","date":"Fazakerley","operation_type":"pfazakerley5i@tamu.edu","amount":"Male","stock_sector":"Consumer Services"},
{"id":200,"account_number":"2141004292","date":"Darkott","operation_type":"mdarkott5j@sbwire.com","amount":"Male","stock_sector":"Public Utilities"},
{"id":201,"account_number":"8745481873","date":"Slack","operation_type":"aslack5k@freewebs.com","amount":"Female","stock_sector":"Consumer Services"},
{"id":202,"account_number":"9861859101","date":"Ghione","operation_type":"kghione5l@nifty.com","amount":"Male","stock_sector":"Health Care"},
{"id":203,"account_number":"2504353073","date":"Varrow","operation_type":"fvarrow5m@elpais.com","amount":"Female","stock_sector":"Consumer Durables"},
{"id":204,"account_number":"2071754115","date":"Thody","operation_type":"athody5n@boston.com","amount":"Male","stock_sector":"Finance"},
{"id":205,"account_number":"1466069910","date":"Fontin","operation_type":"mfontin5o@marketwatch.com","amount":"Male","stock_sector":"Finance"},
{"id":206,"account_number":"5918672710","date":"Tull","operation_type":"htull5p@mozilla.org","amount":"Male","stock_sector":"Energy"},
{"id":207,"account_number":"1133498272","date":"Featherstone","operation_type":"afeatherstone5q@cyberchimps.com","amount":"Female","stock_sector":"Capital Goods"},
{"id":208,"account_number":"5945606286","date":"Rhodes","operation_type":"lrhodes5r@joomla.org","amount":"Male","stock_sector":"Consumer Services"},
{"id":209,"account_number":"0275482928","date":"Buret","operation_type":"lburet5s@artisteer.com","amount":"Male","stock_sector":"Health Care"},
{"id":210,"account_number":"4320764943","date":"Dillaway","operation_type":"edillaway5t@webeden.co.uk","amount":"Female","stock_sector":"Technology"},
{"id":211,"account_number":"6324038173","date":"Yarn","operation_type":"lyarn5u@microsoft.com","amount":"Male","stock_sector":"Health Care"},
{"id":212,"account_number":"5093920541","date":"Paulton","operation_type":"ppaulton5v@adobe.com","amount":"Female","stock_sector":"Consumer Services"},
{"id":213,"account_number":"0733777996","date":"Bassingden","operation_type":"rbassingden5w@ucla.edu","amount":"Male","stock_sector":"Finance"},
{"id":214,"account_number":"6826723409","date":"McGorley","operation_type":"vmcgorley5x@nature.com","amount":"Female","stock_sector":"Consumer Services"},
{"id":215,"account_number":"1848820666","date":"Tolfrey","operation_type":"etolfrey5y@surveymonkey.com","amount":"Male","stock_sector":"Health Care"},
{"id":216,"account_number":"1617372773","date":"Winsley","operation_type":"lwinsley5z@weebly.com","amount":"Male","stock_sector":"Finance"},
{"id":217,"account_number":"3769195175","date":"Critchell","operation_type":"acritchell60@altervista.org","amount":"Female","stock_sector":"Health Care"},
{"id":218,"account_number":"6107732055","date":"Marklow","operation_type":"tmarklow61@trellian.com","amount":"Female","stock_sector":"n/a"},
{"id":219,"account_number":"5793666834","date":"Groomebridge","operation_type":"cgroomebridge62@nyu.edu","amount":"Female","stock_sector":"n/a"},
{"id":220,"account_number":"1268522775","date":"Sprouls","operation_type":"gsprouls63@ebay.co.uk","amount":"Male","stock_sector":"n/a"},
{"id":221,"account_number":"1024942554","date":"Blincko","operation_type":"ablincko64@yolasite.com","amount":"Female","stock_sector":"Finance"},
{"id":222,"account_number":"1646556429","date":"Lipscombe","operation_type":"klipscombe65@e-recht24.de","amount":"Male","stock_sector":"Public Utilities"},
{"id":223,"account_number":"2479977196","date":"Wiley","operation_type":"bwiley66@bluehost.com","amount":"Male","stock_sector":"n/a"},
{"id":224,"account_number":"1350871966","date":"Creggan","operation_type":"lcreggan67@vinaora.com","amount":"Male","stock_sector":"Consumer Services"},
{"id":225,"account_number":"4900684538","date":"Rickman","operation_type":"prickman68@unblog.fr","amount":"Female","stock_sector":"Finance"},
{"id":226,"account_number":"2576824358","date":"Flecknell","operation_type":"nflecknell69@businessinsider.com","amount":"Male","stock_sector":"Finance"},
{"id":227,"account_number":"8526623419","date":"Phillipson","operation_type":"dphillipson6a@nps.gov","amount":"Male","stock_sector":"Capital Goods"},
{"id":228,"account_number":"5050982421","date":"Favey","operation_type":"mfavey6b@indiegogo.com","amount":"Female","stock_sector":"Transportation"},
{"id":229,"account_number":"7500822545","date":"Knight","operation_type":"fknight6c@constantcontact.com","amount":"Male","stock_sector":"Finance"},
{"id":230,"account_number":"8147646534","date":"Riepel","operation_type":"iriepel6d@artisteer.com","amount":"Male","stock_sector":"Energy"},
{"id":231,"account_number":"1628245719","date":"Beringer","operation_type":"mberinger6e@cnbc.com","amount":"Male","stock_sector":"n/a"},
{"id":232,"account_number":"0048996688","date":"Van Arsdale","operation_type":"gvanarsdale6f@google.co.uk","amount":"Male","stock_sector":"Health Care"},
{"id":233,"account_number":"5683935938","date":"Summerton","operation_type":"isummerton6g@constantcontact.com","amount":"Male","stock_sector":"n/a"},
{"id":234,"account_number":"2876402378","date":"Swayton","operation_type":"xswayton6h@ted.com","amount":"Female","stock_sector":"Consumer Non-Durables"},
{"id":235,"account_number":"5103414392","date":"Foresight","operation_type":"cforesight6i@msn.com","amount":"Female","stock_sector":"Technology"},
{"id":236,"account_number":"6978616885","date":"Turvie","operation_type":"oturvie6j@dell.com","amount":"Male","stock_sector":"Miscellaneous"},
{"id":237,"account_number":"7352942262","date":"Snoden","operation_type":"dsnoden6k@mysql.com","amount":"Male","stock_sector":"Health Care"},
{"id":238,"account_number":"9186741470","date":"Damp","operation_type":"ddamp6l@nyu.edu","amount":"Female","stock_sector":"n/a"},
{"id":239,"account_number":"2500308235","date":"Quantrill","operation_type":"squantrill6m@exblog.jp","amount":"Female","stock_sector":"n/a"},
{"id":240,"account_number":"2763765637","date":"Jimmes","operation_type":"wjimmes6n@craigslist.org","amount":"Male","stock_sector":"Miscellaneous"},
{"id":241,"account_number":"4848320984","date":"Rubica","operation_type":"hrubica6o@aboutads.info","amount":"Female","stock_sector":"Technology"},
{"id":242,"account_number":"0605871361","date":"Le Frank","operation_type":"flefrank6p@miitbeian.gov.cn","amount":"Male","stock_sector":"Finance"},
{"id":243,"account_number":"8224795489","date":"Kesterton","operation_type":"ekesterton6q@weather.com","amount":"Male","stock_sector":"Energy"},
{"id":244,"account_number":"7221225575","date":"Dumbell","operation_type":"edumbell6r@redcross.org","amount":"Male","stock_sector":"Finance"},
{"id":245,"account_number":"0221170200","date":"Benois","operation_type":"mbenois6s@opensource.org","amount":"Male","stock_sector":"n/a"},
{"id":246,"account_number":"3127885113","date":"Busst","operation_type":"fbusst6t@goodreads.com","amount":"Male","stock_sector":"Technology"},
{"id":247,"account_number":"9458393337","date":"Houlaghan","operation_type":"rhoulaghan6u@vistaprint.com","amount":"Female","stock_sector":"Technology"},
{"id":248,"account_number":"8966165125","date":"Armour","operation_type":"marmour6v@howstuffworks.com","amount":"Male","stock_sector":"Finance"},
{"id":249,"account_number":"5269633825","date":"Dahle","operation_type":"hdahle6w@goo.gl","amount":"Male","stock_sector":"Health Care"},
{"id":250,"account_number":"5304847628","date":"Mattimoe","operation_type":"cmattimoe6x@cyberchimps.com","amount":"Female","stock_sector":"n/a"},
{"id":251,"account_number":"6757671719","date":"Dorgon","operation_type":"mdorgon6y@mail.ru","amount":"Female","stock_sector":"Finance"},
{"id":252,"account_number":"3082421237","date":"Hinzer","operation_type":"rhinzer6z@ebay.com","amount":"Male","stock_sector":"Capital Goods"},
{"id":253,"account_number":"9206470159","date":"Smidmoor","operation_type":"fsmidmoor70@forbes.com","amount":"Male","stock_sector":"n/a"},
{"id":254,"account_number":"9959256359","date":"Sawell","operation_type":"msawell71@salon.com","amount":"Female","stock_sector":"Finance"},
{"id":255,"account_number":"9685964211","date":"Cromley","operation_type":"ccromley72@businesswire.com","amount":"Male","stock_sector":"Energy"},
{"id":256,"account_number":"8942514022","date":"Eagle","operation_type":"geagle73@posterous.com","amount":"Male","stock_sector":"Technology"},
{"id":257,"account_number":"8259495260","date":"O' Mulderrig","operation_type":"momulderrig74@forbes.com","amount":"Female","stock_sector":"Technology"},
{"id":258,"account_number":"5087557325","date":"Shapira","operation_type":"eshapira75@hao123.com","amount":"Female","stock_sector":"n/a"},
{"id":259,"account_number":"6484168776","date":"Lefeaver","operation_type":"llefeaver76@google.ca","amount":"Male","stock_sector":"Finance"},
{"id":260,"account_number":"7001608963","date":"Lumly","operation_type":"klumly77@zimbio.com","amount":"Female","stock_sector":"Consumer Services"},
{"id":261,"account_number":"8208716693","date":"Riddington","operation_type":"mriddington78@is.gd","amount":"Male","stock_sector":"n/a"},
{"id":262,"account_number":"5072228207","date":"Curgenven","operation_type":"pcurgenven79@bing.com","amount":"Male","stock_sector":"Technology"},
{"id":263,"account_number":"0600973654","date":"Kropach","operation_type":"dkropach7a@dion.ne.jp","amount":"Male","stock_sector":"Consumer Non-Durables"},
{"id":264,"account_number":"0524950512","date":"Peploe","operation_type":"apeploe7b@free.fr","amount":"Female","stock_sector":"Health Care"},
{"id":265,"account_number":"5311697415","date":"Clavering","operation_type":"tclavering7c@msn.com","amount":"Male","stock_sector":"Consumer Services"},
{"id":266,"account_number":"9335347817","date":"Dymick","operation_type":"adymick7d@globo.com","amount":"Male","stock_sector":"Consumer Services"},
{"id":267,"account_number":"8067960801","date":"Kelle","operation_type":"skelle7e@soundcloud.com","amount":"Male","stock_sector":"Technology"},
{"id":268,"account_number":"8284068133","date":"Cammidge","operation_type":"ccammidge7f@ning.com","amount":"Female","stock_sector":"Health Care"},
{"id":269,"account_number":"8066263910","date":"Fulks","operation_type":"sfulks7g@people.com.cn","amount":"Female","stock_sector":"Consumer Services"},
{"id":270,"account_number":"4673328396","date":"Klasen","operation_type":"rklasen7h@umn.edu","amount":"Female","stock_sector":"n/a"},
{"id":271,"account_number":"0620423609","date":"Crichley","operation_type":"acrichley7i@vimeo.com","amount":"Male","stock_sector":"Finance"},
{"id":272,"account_number":"2445356180","date":"Itzchaky","operation_type":"aitzchaky7j@bigcartel.com","amount":"Male","stock_sector":"Finance"},
{"id":273,"account_number":"1742396259","date":"Attwooll","operation_type":"jattwooll7k@intel.com","amount":"Male","stock_sector":"n/a"},
{"id":274,"account_number":"2150480964","date":"Broggetti","operation_type":"lbroggetti7l@list-manage.com","amount":"Male","stock_sector":"n/a"},
{"id":275,"account_number":"3162960681","date":"Bartkiewicz","operation_type":"kbartkiewicz7m@google.de","amount":"Female","stock_sector":"Technology"},
{"id":276,"account_number":"3413018299","date":"Morstatt","operation_type":"wmorstatt7n@reference.com","amount":"Female","stock_sector":"Public Utilities"},
{"id":277,"account_number":"2465165674","date":"Dutt","operation_type":"idutt7o@go.com","amount":"Male","stock_sector":"n/a"},
{"id":278,"account_number":"4830348593","date":"Jeske","operation_type":"kjeske7p@seattletimes.com","amount":"Female","stock_sector":"Consumer Services"},
{"id":279,"account_number":"3869603658","date":"Flowerden","operation_type":"mflowerden7q@google.com","amount":"Male","stock_sector":"n/a"},
{"id":280,"account_number":"3345810697","date":"Goodings","operation_type":"lgoodings7r@google.cn","amount":"Female","stock_sector":"n/a"},
{"id":281,"account_number":"2815246163","date":"Thomkins","operation_type":"mthomkins7s@is.gd","amount":"Female","stock_sector":"Consumer Services"},
{"id":282,"account_number":"9849609311","date":"Smyley","operation_type":"bsmyley7t@tuttocitta.it","amount":"Female","stock_sector":"n/a"},
{"id":283,"account_number":"5995891790","date":"Shurrock","operation_type":"lshurrock7u@exblog.jp","amount":"Female","stock_sector":"Health Care"},
{"id":284,"account_number":"9792533257","date":"Summers","operation_type":"csummers7v@elpais.com","amount":"Female","stock_sector":"Health Care"},
{"id":285,"account_number":"9263047081","date":"Churchman","operation_type":"lchurchman7w@europa.eu","amount":"Female","stock_sector":"Consumer Services"},
{"id":286,"account_number":"6895904123","date":"Quilligan","operation_type":"oquilligan7x@netlog.com","amount":"Female","stock_sector":"n/a"},
{"id":287,"account_number":"1175534277","date":"Beardsall","operation_type":"jbeardsall7y@umn.edu","amount":"Male","stock_sector":"Technology"},
{"id":288,"account_number":"6466738914","date":"Siss","operation_type":"asiss7z@mapquest.com","amount":"Female","stock_sector":"Finance"},
{"id":289,"account_number":"1228147450","date":"Gagie","operation_type":"fgagie80@jigsy.com","amount":"Female","stock_sector":"Consumer Services"},
{"id":290,"account_number":"8170684250","date":"Callum","operation_type":"mcallum81@bbc.co.uk","amount":"Male","stock_sector":"Consumer Services"},
{"id":291,"account_number":"5497794971","date":"Abramowitz","operation_type":"cabramowitz82@usda.gov","amount":"Male","stock_sector":"Technology"},
{"id":292,"account_number":"9010750248","date":"Gainsburgh","operation_type":"rgainsburgh83@smugmug.com","amount":"Female","stock_sector":"Public Utilities"},
{"id":293,"account_number":"0961481927","date":"Urwen","operation_type":"murwen84@springer.com","amount":"Male","stock_sector":"Finance"},
{"id":294,"account_number":"5921501441","date":"Scrace","operation_type":"fscrace85@accuweather.com","amount":"Male","stock_sector":"Consumer Services"},
{"id":295,"account_number":"5992933433","date":"Mesnard","operation_type":"lmesnard86@ed.gov","amount":"Female","stock_sector":"Finance"},
{"id":296,"account_number":"3255846382","date":"Fathers","operation_type":"sfathers87@ca.gov","amount":"Male","stock_sector":"Capital Goods"},
{"id":297,"account_number":"6199080351","date":"Wylam","operation_type":"fwylam88@tinypic.com","amount":"Male","stock_sector":"n/a"},
{"id":298,"account_number":"4399058102","date":"Climo","operation_type":"hclimo89@forbes.com","amount":"Female","stock_sector":"Health Care"},
{"id":299,"account_number":"4521164684","date":"Maty","operation_type":"dmaty8a@technorati.com","amount":"Female","stock_sector":"n/a"},
{"id":300,"account_number":"0613273729","date":"Kibbey","operation_type":"akibbey8b@meetup.com","amount":"Male","stock_sector":"Finance"},
{"id":301,"account_number":"3635118907","date":"Rasher","operation_type":"krasher8c@qq.com","amount":"Female","stock_sector":"Consumer Services"},
{"id":302,"account_number":"8488791151","date":"Burgoin","operation_type":"kburgoin8d@apple.com","amount":"Male","stock_sector":"Consumer Non-Durables"},
{"id":303,"account_number":"1959436554","date":"Fominov","operation_type":"afominov8e@cbsnews.com","amount":"Male","stock_sector":"Health Care"},
{"id":304,"account_number":"7809036106","date":"Blowick","operation_type":"nblowick8f@disqus.com","amount":"Male","stock_sector":"Finance"},
{"id":305,"account_number":"1353639207","date":"MacCartney","operation_type":"cmaccartney8g@auda.org.au","amount":"Female","stock_sector":"Consumer Services"},
{"id":306,"account_number":"5053537232","date":"Feetham","operation_type":"vfeetham8h@gnu.org","amount":"Female","stock_sector":"Finance"},
{"id":307,"account_number":"9473961529","date":"Kenworthy","operation_type":"wkenworthy8i@wikispaces.com","amount":"Female","stock_sector":"Consumer Durables"},
{"id":308,"account_number":"5351061392","date":"Matyushonok","operation_type":"bmatyushonok8j@about.me","amount":"Female","stock_sector":"Technology"},
{"id":309,"account_number":"6331834117","date":"Le Moucheux","operation_type":"rlemoucheux8k@nih.gov","amount":"Female","stock_sector":"Consumer Services"},
{"id":310,"account_number":"6384801698","date":"Daviddi","operation_type":"sdaviddi8l@miitbeian.gov.cn","amount":"Female","stock_sector":"Basic Industries"},
{"id":311,"account_number":"8169145775","date":"Scardafield","operation_type":"escardafield8m@redcross.org","amount":"Male","stock_sector":"Consumer Services"},
{"id":312,"account_number":"5460711983","date":"Mallam","operation_type":"cmallam8n@abc.net.au","amount":"Male","stock_sector":"Consumer Durables"},
{"id":313,"account_number":"9565868851","date":"Pratt","operation_type":"epratt8o@google.de","amount":"Female","stock_sector":"Public Utilities"},
{"id":314,"account_number":"9162577379","date":"Richten","operation_type":"rrichten8p@tiny.cc","amount":"Female","stock_sector":"n/a"},
{"id":315,"account_number":"7417286941","date":"Kuzemka","operation_type":"ekuzemka8q@aol.com","amount":"Female","stock_sector":"Public Utilities"},
{"id":316,"account_number":"8197497125","date":"Nolton","operation_type":"dnolton8r@ftc.gov","amount":"Male","stock_sector":"n/a"},
{"id":317,"account_number":"5708468831","date":"Fritzer","operation_type":"dfritzer8s@paypal.com","amount":"Male","stock_sector":"Consumer Services"},
{"id":318,"account_number":"0501691812","date":"Sainter","operation_type":"jsainter8t@cdbaby.com","amount":"Male","stock_sector":"Consumer Services"},
{"id":319,"account_number":"2952633746","date":"Spaughton","operation_type":"aspaughton8u@cdc.gov","amount":"Female","stock_sector":"Health Care"},
{"id":320,"account_number":"2404150995","date":"Wilprecht","operation_type":"twilprecht8v@hud.gov","amount":"Male","stock_sector":"Consumer Services"},
{"id":321,"account_number":"6191883757","date":"Rapaport","operation_type":"mrapaport8w@telegraph.co.uk","amount":"Male","stock_sector":"Consumer Services"},
{"id":322,"account_number":"7497135430","date":"Castagnet","operation_type":"mcastagnet8x@woothemes.com","amount":"Male","stock_sector":"Consumer Services"},
{"id":323,"account_number":"7407633517","date":"McCumesky","operation_type":"hmccumesky8y@google.de","amount":"Female","stock_sector":"Consumer Services"},
{"id":324,"account_number":"1669977269","date":"Amis","operation_type":"pamis8z@chron.com","amount":"Female","stock_sector":"Capital Goods"},
{"id":325,"account_number":"1103596373","date":"Castanaga","operation_type":"zcastanaga90@comcast.net","amount":"Female","stock_sector":"Energy"},
{"id":326,"account_number":"9198256289","date":"Orsay","operation_type":"dorsay91@jimdo.com","amount":"Male","stock_sector":"Health Care"},
{"id":327,"account_number":"8462516900","date":"Spurgeon","operation_type":"kspurgeon92@google.com.hk","amount":"Male","stock_sector":"Technology"},
{"id":328,"account_number":"0123516714","date":"Prendergrast","operation_type":"aprendergrast93@github.io","amount":"Female","stock_sector":"n/a"},
{"id":329,"account_number":"2032018985","date":"Wayper","operation_type":"cwayper94@statcounter.com","amount":"Male","stock_sector":"Consumer Non-Durables"},
{"id":330,"account_number":"9199133164","date":"Darracott","operation_type":"pdarracott95@nationalgeographic.com","amount":"Male","stock_sector":"Consumer Services"},
{"id":331,"account_number":"9319623155","date":"Melhuish","operation_type":"bmelhuish96@cbsnews.com","amount":"Male","stock_sector":"Consumer Services"},
{"id":332,"account_number":"2541997485","date":"Burchatt","operation_type":"fburchatt97@slate.com","amount":"Male","stock_sector":"Energy"},
{"id":333,"account_number":"1104074990","date":"Cleeve","operation_type":"bcleeve98@is.gd","amount":"Female","stock_sector":"Consumer Services"},
{"id":334,"account_number":"6064545550","date":"McIlenna","operation_type":"pmcilenna99@live.com","amount":"Male","stock_sector":"Finance"},
{"id":335,"account_number":"0468912940","date":"Morrott","operation_type":"hmorrott9a@nsw.gov.au","amount":"Male","stock_sector":"n/a"},
{"id":336,"account_number":"0948140380","date":"Lytton","operation_type":"glytton9b@noaa.gov","amount":"Male","stock_sector":"Miscellaneous"},
{"id":337,"account_number":"9944870730","date":"Hawton","operation_type":"khawton9c@google.fr","amount":"Male","stock_sector":"Finance"},
{"id":338,"account_number":"3811871625","date":"Bubbings","operation_type":"dbubbings9d@g.co","amount":"Male","stock_sector":"Consumer Non-Durables"},
{"id":339,"account_number":"4374424482","date":"Kingaby","operation_type":"rkingaby9e@wunderground.com","amount":"Male","stock_sector":"Consumer Services"},
{"id":340,"account_number":"7673810247","date":"Dory","operation_type":"ndory9f@google.nl","amount":"Female","stock_sector":"Technology"},
{"id":341,"account_number":"9243838954","date":"Cowpland","operation_type":"rcowpland9g@ucsd.edu","amount":"Male","stock_sector":"Finance"},
{"id":342,"account_number":"3789211664","date":"Benet","operation_type":"ebenet9h@aol.com","amount":"Male","stock_sector":"n/a"},
{"id":343,"account_number":"4006826672","date":"Wildsmith","operation_type":"pwildsmith9i@exblog.jp","amount":"Male","stock_sector":"Energy"},
{"id":344,"account_number":"0057241864","date":"Gabbetis","operation_type":"agabbetis9j@uiuc.edu","amount":"Male","stock_sector":"Public Utilities"},
{"id":345,"account_number":"8497082524","date":"Kauffman","operation_type":"jkauffman9k@amazonaws.com","amount":"Male","stock_sector":"Finance"},
{"id":346,"account_number":"6359920255","date":"Corkell","operation_type":"icorkell9l@pbs.org","amount":"Female","stock_sector":"n/a"},
{"id":347,"account_number":"5164541378","date":"Swan","operation_type":"dswan9m@discuz.net","amount":"Male","stock_sector":"n/a"},
{"id":348,"account_number":"3658837233","date":"Morl","operation_type":"amorl9n@cbsnews.com","amount":"Male","stock_sector":"Public Utilities"},
{"id":349,"account_number":"3733766725","date":"Sneezum","operation_type":"nsneezum9o@msu.edu","amount":"Male","stock_sector":"Technology"},
{"id":350,"account_number":"9961413326","date":"Leyzell","operation_type":"eleyzell9p@soundcloud.com","amount":"Male","stock_sector":"Consumer Services"},
{"id":351,"account_number":"5335922591","date":"Moores","operation_type":"bmoores9q@google.com.br","amount":"Female","stock_sector":"Energy"},
{"id":352,"account_number":"2634983654","date":"Frede","operation_type":"ifrede9r@github.io","amount":"Male","stock_sector":"n/a"},
{"id":353,"account_number":"6321601578","date":"Cousens","operation_type":"kcousens9s@taobao.com","amount":"Male","stock_sector":"Finance"},
{"id":354,"account_number":"0317269232","date":"Rucklidge","operation_type":"brucklidge9t@businesswire.com","amount":"Male","stock_sector":"Technology"},
{"id":355,"account_number":"8745190933","date":"Otterwell","operation_type":"eotterwell9u@washingtonpost.com","amount":"Female","stock_sector":"Public Utilities"},
{"id":356,"account_number":"7115711518","date":"Houseman","operation_type":"hhouseman9v@people.com.cn","amount":"Male","stock_sector":"n/a"},
{"id":357,"account_number":"5046669862","date":"Seabrocke","operation_type":"sseabrocke9w@edublogs.org","amount":"Male","stock_sector":"Finance"},
{"id":358,"account_number":"0350889899","date":"Petrovykh","operation_type":"lpetrovykh9x@bloglines.com","amount":"Female","stock_sector":"Consumer Services"},
{"id":359,"account_number":"2134900881","date":"Otson","operation_type":"botson9y@printfriendly.com","amount":"Male","stock_sector":"Consumer Services"},
{"id":360,"account_number":"8036935600","date":"Beechcraft","operation_type":"ibeechcraft9z@quantcast.com","amount":"Female","stock_sector":"n/a"},
{"id":361,"account_number":"4745671296","date":"McGuggy","operation_type":"hmcguggya0@netscape.com","amount":"Male","stock_sector":"Consumer Non-Durables"},
{"id":362,"account_number":"6356545089","date":"Kinnin","operation_type":"skinnina1@nytimes.com","amount":"Female","stock_sector":"n/a"},
{"id":363,"account_number":"5827047716","date":"Bwy","operation_type":"kbwya2@hp.com","amount":"Female","stock_sector":"Consumer Services"},
{"id":364,"account_number":"6709992829","date":"Gundry","operation_type":"agundrya3@multiply.com","amount":"Male","stock_sector":"Finance"},
{"id":365,"account_number":"6384202794","date":"Richten","operation_type":"rrichtena4@google.es","amount":"Male","stock_sector":"Miscellaneous"},
{"id":366,"account_number":"0367700875","date":"Belcham","operation_type":"gbelchama5@ustream.tv","amount":"Female","stock_sector":"Energy"},
{"id":367,"account_number":"7482131647","date":"Risborough","operation_type":"wrisborougha6@scribd.com","amount":"Male","stock_sector":"Finance"},
{"id":368,"account_number":"5655887428","date":"Barkley","operation_type":"bbarkleya7@sina.com.cn","amount":"Female","stock_sector":"Public Utilities"},
{"id":369,"account_number":"1362032425","date":"Yaldren","operation_type":"fyaldrena8@zdnet.com","amount":"Female","stock_sector":"Consumer Services"},
{"id":370,"account_number":"1537931172","date":"Jeffcoate","operation_type":"ajeffcoatea9@jigsy.com","amount":"Male","stock_sector":"Consumer Non-Durables"},
{"id":371,"account_number":"8204513771","date":"Shaw","operation_type":"mshawaa@usgs.gov","amount":"Female","stock_sector":"Energy"},
{"id":372,"account_number":"0951626949","date":"Folomin","operation_type":"afolominab@who.int","amount":"Female","stock_sector":"n/a"},
{"id":373,"account_number":"1669434923","date":"Salsberg","operation_type":"csalsbergac@msu.edu","amount":"Female","stock_sector":"Capital Goods"},
{"id":374,"account_number":"0660557843","date":"Renoden","operation_type":"irenodenad@berkeley.edu","amount":"Female","stock_sector":"Capital Goods"},
{"id":375,"account_number":"9475233164","date":"Philippart","operation_type":"ephilippartae@google.co.jp","amount":"Female","stock_sector":"n/a"},
{"id":376,"account_number":"7254227488","date":"Murrish","operation_type":"emurrishaf@umn.edu","amount":"Male","stock_sector":"n/a"},
{"id":377,"account_number":"6972461308","date":"Delia","operation_type":"tdeliaag@t-online.de","amount":"Male","stock_sector":"Consumer Services"},
{"id":378,"account_number":"8420041807","date":"Chree","operation_type":"lchreeah@tmall.com","amount":"Male","stock_sector":"Consumer Non-Durables"},
{"id":379,"account_number":"0938448757","date":"Verlander","operation_type":"fverlanderai@jugem.jp","amount":"Female","stock_sector":"Finance"},
{"id":380,"account_number":"6225597050","date":"Merrill","operation_type":"amerrillaj@ucsd.edu","amount":"Female","stock_sector":"Finance"},
{"id":381,"account_number":"0318575566","date":"Huddy","operation_type":"ghuddyak@weibo.com","amount":"Female","stock_sector":"Consumer Services"},
{"id":382,"account_number":"7994678459","date":"Littlechild","operation_type":"mlittlechildal@odnoklassniki.ru","amount":"Female","stock_sector":"Technology"},
{"id":383,"account_number":"4347873506","date":"Petruk","operation_type":"tpetrukam@tuttocitta.it","amount":"Male","stock_sector":"Health Care"},
{"id":384,"account_number":"1334298912","date":"Gavrieli","operation_type":"hgavrielian@51.la","amount":"Male","stock_sector":"Capital Goods"},
{"id":385,"account_number":"2101200155","date":"Nairne","operation_type":"snairneao@umn.edu","amount":"Male","stock_sector":"Finance"},
{"id":386,"account_number":"6817293111","date":"Hartman","operation_type":"lhartmanap@marriott.com","amount":"Female","stock_sector":"Consumer Services"},
{"id":387,"account_number":"4783875235","date":"Penritt","operation_type":"npenrittaq@goo.ne.jp","amount":"Female","stock_sector":"Finance"},
{"id":388,"account_number":"3475229129","date":"Rableau","operation_type":"drableauar@bizjournals.com","amount":"Male","stock_sector":"Consumer Services"},
{"id":389,"account_number":"3498488856","date":"Dow","operation_type":"ddowas@com.com","amount":"Male","stock_sector":"Finance"},
{"id":390,"account_number":"7259666854","date":"Bouch","operation_type":"cbouchat@nasa.gov","amount":"Male","stock_sector":"Consumer Services"},
{"id":391,"account_number":"2523369125","date":"Seden","operation_type":"bsedenau@flavors.me","amount":"Female","stock_sector":"n/a"},
{"id":392,"account_number":"9690189735","date":"Danilevich","operation_type":"odanilevichav@wunderground.com","amount":"Female","stock_sector":"n/a"},
{"id":393,"account_number":"2255346680","date":"Crate","operation_type":"ucrateaw@blogger.com","amount":"Male","stock_sector":"Capital Goods"},
{"id":394,"account_number":"6975402280","date":"Tunaclift","operation_type":"rtunacliftax@t-online.de","amount":"Female","stock_sector":"Miscellaneous"},
{"id":395,"account_number":"6507465372","date":"McGoogan","operation_type":"cmcgooganay@a8.net","amount":"Female","stock_sector":"Consumer Services"},
{"id":396,"account_number":"4402837375","date":"Hansie","operation_type":"ohansieaz@mtv.com","amount":"Male","stock_sector":"n/a"},
{"id":397,"account_number":"3278933141","date":"Chifney","operation_type":"gchifneyb0@gnu.org","amount":"Male","stock_sector":"Technology"},
{"id":398,"account_number":"7215580741","date":"Brettle","operation_type":"lbrettleb1@reuters.com","amount":"Male","stock_sector":"n/a"},
{"id":399,"account_number":"0803351054","date":"Geekin","operation_type":"sgeekinb2@princeton.edu","amount":"Female","stock_sector":"Consumer Services"},
{"id":400,"account_number":"5812915741","date":"Streatley","operation_type":"qstreatleyb3@pinterest.com","amount":"Male","stock_sector":"Consumer Services"},
{"id":401,"account_number":"4352151211","date":"O' Quirk","operation_type":"ooquirkb4@bandcamp.com","amount":"Female","stock_sector":"n/a"},
{"id":402,"account_number":"8891779903","date":"Mylchreest","operation_type":"cmylchreestb5@businesswire.com","amount":"Male","stock_sector":"Health Care"},
{"id":403,"account_number":"5335812214","date":"Bassindale","operation_type":"lbassindaleb6@github.com","amount":"Female","stock_sector":"Consumer Services"},
{"id":404,"account_number":"9878088464","date":"Naris","operation_type":"knarisb7@mac.com","amount":"Male","stock_sector":"Capital Goods"},
{"id":405,"account_number":"1990517080","date":"Hutcheson","operation_type":"mhutchesonb8@indiatimes.com","amount":"Male","stock_sector":"Basic Industries"},
{"id":406,"account_number":"0228259991","date":"Bezley","operation_type":"vbezleyb9@chronoengine.com","amount":"Female","stock_sector":"n/a"},
{"id":407,"account_number":"0701677147","date":"Beddin","operation_type":"bbeddinba@comsenz.com","amount":"Female","stock_sector":"Technology"},
{"id":408,"account_number":"1153166526","date":"Coalbran","operation_type":"lcoalbranbb@washingtonpost.com","amount":"Male","stock_sector":"n/a"},
{"id":409,"account_number":"9040885699","date":"Covolini","operation_type":"ccovolinibc@cyberchimps.com","amount":"Male","stock_sector":"Finance"},
{"id":410,"account_number":"0050222155","date":"Stickens","operation_type":"tstickensbd@google.pl","amount":"Female","stock_sector":"Miscellaneous"},
{"id":411,"account_number":"8947011193","date":"Mountain","operation_type":"rmountainbe@wsj.com","amount":"Female","stock_sector":"Finance"},
{"id":412,"account_number":"0056582889","date":"Canellas","operation_type":"ccanellasbf@samsung.com","amount":"Female","stock_sector":"n/a"},
{"id":413,"account_number":"7202538490","date":"Downing","operation_type":"fdowningbg@tumblr.com","amount":"Female","stock_sector":"Consumer Non-Durables"},
{"id":414,"account_number":"1677764570","date":"Gianullo","operation_type":"fgianullobh@macromedia.com","amount":"Male","stock_sector":"Finance"},
{"id":415,"account_number":"1441458409","date":"Meriott","operation_type":"gmeriottbi@rakuten.co.jp","amount":"Female","stock_sector":"Capital Goods"},
{"id":416,"account_number":"5412470483","date":"Birckmann","operation_type":"sbirckmannbj@answers.com","amount":"Female","stock_sector":"Technology"},
{"id":417,"account_number":"1688637613","date":"Lancaster","operation_type":"dlancasterbk@rambler.ru","amount":"Male","stock_sector":"Public Utilities"},
{"id":418,"account_number":"4864434654","date":"Roust","operation_type":"rroustbl@oracle.com","amount":"Male","stock_sector":"Health Care"},
{"id":419,"account_number":"0141953152","date":"Stinson","operation_type":"rstinsonbm@godaddy.com","amount":"Female","stock_sector":"n/a"},
{"id":420,"account_number":"9681590732","date":"Belcham","operation_type":"sbelchambn@google.co.uk","amount":"Female","stock_sector":"Public Utilities"},
{"id":421,"account_number":"3391033207","date":"Roxbrough","operation_type":"aroxbroughbo@ucsd.edu","amount":"Female","stock_sector":"Capital Goods"},
{"id":422,"account_number":"9009419134","date":"Van der Spohr","operation_type":"avanderspohrbp@guardian.co.uk","amount":"Female","stock_sector":"n/a"},
{"id":423,"account_number":"3502259445","date":"Elliott","operation_type":"pelliottbq@fda.gov","amount":"Female","stock_sector":"n/a"},
{"id":424,"account_number":"2999750498","date":"Bloxholm","operation_type":"mbloxholmbr@amazon.com","amount":"Female","stock_sector":"Health Care"},
{"id":425,"account_number":"1005248176","date":"Leither","operation_type":"kleitherbs@taobao.com","amount":"Male","stock_sector":"Health Care"},
{"id":426,"account_number":"3489198735","date":"Weaben","operation_type":"lweabenbt@instagram.com","amount":"Female","stock_sector":"Health Care"},
{"id":427,"account_number":"6389035365","date":"Schoales","operation_type":"kschoalesbu@simplemachines.org","amount":"Male","stock_sector":"Miscellaneous"},
{"id":428,"account_number":"9064010153","date":"Tiuit","operation_type":"ktiuitbv@exblog.jp","amount":"Male","stock_sector":"Energy"},
{"id":429,"account_number":"8955585179","date":"Ansell","operation_type":"mansellbw@uiuc.edu","amount":"Male","stock_sector":"n/a"},
{"id":430,"account_number":"2754430415","date":"Jocelyn","operation_type":"pjocelynbx@youtube.com","amount":"Female","stock_sector":"Consumer Services"},
{"id":431,"account_number":"3312477328","date":"Iles","operation_type":"ailesby@ted.com","amount":"Male","stock_sector":"n/a"},
{"id":432,"account_number":"9532199918","date":"Bauldrey","operation_type":"gbauldreybz@comcast.net","amount":"Male","stock_sector":"Consumer Services"},
{"id":433,"account_number":"5337623176","date":"Pieroni","operation_type":"cpieronic0@seesaa.net","amount":"Male","stock_sector":"n/a"},
{"id":434,"account_number":"4826360428","date":"Nevill","operation_type":"onevillc1@multiply.com","amount":"Female","stock_sector":"Energy"},
{"id":435,"account_number":"5924487873","date":"Wrefford","operation_type":"dwreffordc2@chron.com","amount":"Male","stock_sector":"Public Utilities"},
{"id":436,"account_number":"9832486424","date":"Imloch","operation_type":"simlochc3@wordpress.com","amount":"Female","stock_sector":"Health Care"},
{"id":437,"account_number":"2181149135","date":"Gisburn","operation_type":"jgisburnc4@sohu.com","amount":"Male","stock_sector":"Health Care"},
{"id":438,"account_number":"0495494283","date":"Phette","operation_type":"sphettec5@histats.com","amount":"Male","stock_sector":"Miscellaneous"},
{"id":439,"account_number":"1510610707","date":"Kraut","operation_type":"bkrautc6@dailymail.co.uk","amount":"Female","stock_sector":"Technology"},
{"id":440,"account_number":"7134698823","date":"Barras","operation_type":"sbarrasc7@cargocollective.com","amount":"Male","stock_sector":"Technology"},
{"id":441,"account_number":"0662406761","date":"Millar","operation_type":"fmillarc8@squarespace.com","amount":"Female","stock_sector":"Technology"},
{"id":442,"account_number":"1041642237","date":"Amer","operation_type":"aamerc9@bandcamp.com","amount":"Male","stock_sector":"Energy"},
{"id":443,"account_number":"6281634322","date":"Snoad","operation_type":"psnoadca@eventbrite.com","amount":"Female","stock_sector":"n/a"},
{"id":444,"account_number":"4929777186","date":"Viant","operation_type":"sviantcb@wordpress.org","amount":"Female","stock_sector":"Energy"},
{"id":445,"account_number":"2303282195","date":"Egarr","operation_type":"megarrcc@va.gov","amount":"Female","stock_sector":"Finance"},
{"id":446,"account_number":"8974337010","date":"Limbourne","operation_type":"slimbournecd@booking.com","amount":"Male","stock_sector":"Health Care"},
{"id":447,"account_number":"5381922663","date":"Blackaller","operation_type":"ablackallerce@soundcloud.com","amount":"Male","stock_sector":"Transportation"},
{"id":448,"account_number":"5568210292","date":"Brittain","operation_type":"fbrittaincf@nba.com","amount":"Female","stock_sector":"Finance"},
{"id":449,"account_number":"3044052084","date":"Kester","operation_type":"akestercg@plala.or.jp","amount":"Female","stock_sector":"n/a"},
{"id":450,"account_number":"9979400846","date":"Sasser","operation_type":"jsasserch@chronoengine.com","amount":"Male","stock_sector":"Health Care"},
{"id":451,"account_number":"9024079527","date":"Backhurst","operation_type":"kbackhurstci@indiatimes.com","amount":"Female","stock_sector":"Consumer Non-Durables"},
{"id":452,"account_number":"2146477202","date":"Trousdell","operation_type":"vtrousdellcj@bing.com","amount":"Female","stock_sector":"Consumer Non-Durables"},
{"id":453,"account_number":"5215860459","date":"Matissoff","operation_type":"smatissoffck@loc.gov","amount":"Female","stock_sector":"Basic Industries"},
{"id":454,"account_number":"9931056754","date":"Axworthy","operation_type":"aaxworthycl@wikipedia.org","amount":"Female","stock_sector":"Miscellaneous"},
{"id":455,"account_number":"0371547539","date":"Dust","operation_type":"mdustcm@cnbc.com","amount":"Male","stock_sector":"n/a"},
{"id":456,"account_number":"1285300998","date":"Duggen","operation_type":"oduggencn@baidu.com","amount":"Female","stock_sector":"Consumer Services"},
{"id":457,"account_number":"6371112376","date":"Shyram","operation_type":"wshyramco@amazon.com","amount":"Female","stock_sector":"n/a"},
{"id":458,"account_number":"8463501729","date":"Le Marquand","operation_type":"klemarquandcp@cbc.ca","amount":"Female","stock_sector":"Basic Industries"},
{"id":459,"account_number":"2965889523","date":"Mc Corley","operation_type":"emccorleycq@irs.gov","amount":"Male","stock_sector":"Finance"},
{"id":460,"account_number":"5598065002","date":"Standbrooke","operation_type":"vstandbrookecr@netscape.com","amount":"Female","stock_sector":"Consumer Services"},
{"id":461,"account_number":"8123382138","date":"Mawhinney","operation_type":"cmawhinneycs@ft.com","amount":"Male","stock_sector":"Energy"},
{"id":462,"account_number":"0054206871","date":"Frandsen","operation_type":"kfrandsenct@parallels.com","amount":"Male","stock_sector":"Consumer Durables"},
{"id":463,"account_number":"4213491137","date":"Shilliday","operation_type":"cshillidaycu@nytimes.com","amount":"Male","stock_sector":"Technology"},
{"id":464,"account_number":"5613524459","date":"Ubsdell","operation_type":"mubsdellcv@apache.org","amount":"Female","stock_sector":"Consumer Services"},
{"id":465,"account_number":"6537516390","date":"Shearmur","operation_type":"dshearmurcw@imdb.com","amount":"Male","stock_sector":"Consumer Non-Durables"},
{"id":466,"account_number":"5423727995","date":"Nornable","operation_type":"mnornablecx@sourceforge.net","amount":"Male","stock_sector":"Energy"},
{"id":467,"account_number":"6618766451","date":"Pinnell","operation_type":"lpinnellcy@ovh.net","amount":"Male","stock_sector":"Health Care"},
{"id":468,"account_number":"8097967588","date":"Topling","operation_type":"ptoplingcz@europa.eu","amount":"Male","stock_sector":"n/a"},
{"id":469,"account_number":"2479091651","date":"Paton","operation_type":"kpatond0@economist.com","amount":"Male","stock_sector":"n/a"},
{"id":470,"account_number":"5992462996","date":"Colliard","operation_type":"ecolliardd1@drupal.org","amount":"Male","stock_sector":"Capital Goods"},
{"id":471,"account_number":"7390398515","date":"Vittery","operation_type":"dvitteryd2@irs.gov","amount":"Female","stock_sector":"Consumer Services"},
{"id":472,"account_number":"9150260855","date":"Ord","operation_type":"vordd3@va.gov","amount":"Female","stock_sector":"Finance"},
{"id":473,"account_number":"5347661453","date":"Beadell","operation_type":"mbeadelld4@about.me","amount":"Female","stock_sector":"Energy"},
{"id":474,"account_number":"6290231618","date":"Maddern","operation_type":"lmaddernd5@stumbleupon.com","amount":"Female","stock_sector":"Consumer Services"},
{"id":475,"account_number":"9766333521","date":"Linklater","operation_type":"elinklaterd6@blog.com","amount":"Female","stock_sector":"Basic Industries"},
{"id":476,"account_number":"9326219437","date":"Lamball","operation_type":"blamballd7@1688.com","amount":"Male","stock_sector":"Health Care"},
{"id":477,"account_number":"9080534153","date":"McKoy","operation_type":"emckoyd8@opera.com","amount":"Female","stock_sector":"Basic Industries"},
{"id":478,"account_number":"5464554963","date":"Pugh","operation_type":"bpughd9@addtoany.com","amount":"Male","stock_sector":"n/a"},
{"id":479,"account_number":"8773017647","date":"West","operation_type":"ewestda@engadget.com","amount":"Male","stock_sector":"n/a"},
{"id":480,"account_number":"9277929847","date":"Baude","operation_type":"kbaudedb@accuweather.com","amount":"Female","stock_sector":"n/a"},
{"id":481,"account_number":"5946521497","date":"Craigheid","operation_type":"dcraigheiddc@tumblr.com","amount":"Male","stock_sector":"Capital Goods"},
{"id":482,"account_number":"5313626248","date":"Regitz","operation_type":"cregitzdd@addtoany.com","amount":"Female","stock_sector":"Health Care"},
{"id":483,"account_number":"9822126840","date":"Slyme","operation_type":"jslymede@sphinn.com","amount":"Male","stock_sector":"Public Utilities"},
{"id":484,"account_number":"0384038344","date":"Clampin","operation_type":"hclampindf@ox.ac.uk","amount":"Female","stock_sector":"Consumer Durables"},
{"id":485,"account_number":"9994174169","date":"Endrici","operation_type":"wendricidg@arstechnica.com","amount":"Male","stock_sector":"n/a"},
{"id":486,"account_number":"6785520754","date":"Dodd","operation_type":"jdodddh@soup.io","amount":"Female","stock_sector":"Consumer Services"},
{"id":487,"account_number":"9004696504","date":"Druett","operation_type":"gdruettdi@xrea.com","amount":"Male","stock_sector":"Technology"},
{"id":488,"account_number":"6384361248","date":"Ashforth","operation_type":"vashforthdj@elpais.com","amount":"Male","stock_sector":"Technology"},
{"id":489,"account_number":"3685626949","date":"Runge","operation_type":"nrungedk@lulu.com","amount":"Male","stock_sector":"Consumer Services"},
{"id":490,"account_number":"1162362782","date":"Oldham","operation_type":"coldhamdl@csmonitor.com","amount":"Male","stock_sector":"n/a"},
{"id":491,"account_number":"6070507622","date":"Ridgedell","operation_type":"gridgedelldm@themeforest.net","amount":"Male","stock_sector":"Public Utilities"},
{"id":492,"account_number":"4340572616","date":"Axleby","operation_type":"caxlebydn@sciencedaily.com","amount":"Female","stock_sector":"n/a"},
{"id":493,"account_number":"5254921943","date":"Vivyan","operation_type":"lvivyando@jimdo.com","amount":"Female","stock_sector":"Finance"},
{"id":494,"account_number":"7462487926","date":"Ladon","operation_type":"oladondp@japanpost.jp","amount":"Female","stock_sector":"Consumer Services"},
{"id":495,"account_number":"1173724214","date":"Storks","operation_type":"nstorksdq@irs.gov","amount":"Male","stock_sector":"Capital Goods"},
{"id":496,"account_number":"4962048759","date":"Britton","operation_type":"rbrittondr@ibm.com","amount":"Female","stock_sector":"Finance"},
{"id":497,"account_number":"4543270029","date":"Ivashchenko","operation_type":"givashchenkods@over-blog.com","amount":"Female","stock_sector":"Consumer Non-Durables"},
{"id":498,"account_number":"1097784150","date":"Gribble","operation_type":"zgribbledt@purevolume.com","amount":"Female","stock_sector":"Finance"},
{"id":499,"account_number":"0858294877","date":"Grave","operation_type":"lgravedu@ft.com","amount":"Male","stock_sector":"Technology"},
{"id":500,"account_number":"0629088101","date":"Charon","operation_type":"fcharondv@icq.com","amount":"Female","stock_sector":"n/a"}]